{
    "default_page": "global",
    "listings": [
        {
            "name": "Global",
            "shortname": "global"
        },
        {
            "name": "United States",
            "shortname": "us"
        },
        {
            "name": "Australia",
            "external": "https://httpswatch.com.au/"
        },
        {
            "name": "Austria",
            "shortname": "at"
        },
        {
            "name": "New Zealand",
            "external": "https://httpswatch.nz/"
        },
        {
            "name": "Sweden",
            "shortname": "se"
        },
        {
            "name": "Canada",
            "external": "https://httpswatch.ca/"
        },
        {
            "name": "Programming",
            "shortname": "programming"
        }
    ]
}
